^C:\USERS\DEOME\DESKTOP\FOCP\CB53244B-GR03-REPO\PROJECT\CONSOLEAPPLICATION1\CONSOLEAPPLICATION1\X64\DEBUG\CONSOLEAPPLICATION1.OBJ|C:\USERS\DEOME\DESKTOP\FOCP\CB53244B-GR03-REPO\PROJECT\CONSOLEAPPLICATION1\CONSOLEAPPLICATION1\X64\DEBUG\DELETIONFUNCTIONS.OBJ|C:\USERS\DEOME\DESKTOP\FOCP\CB53244B-GR03-REPO\PROJECT\CONSOLEAPPLICATION1\CONSOLEAPPLICATION1\X64\DEBUG\FUNCTIONS.OBJ|C:\USERS\DEOME\DESKTOP\FOCP\CB53244B-GR03-REPO\PROJECT\CONSOLEAPPLICATION1\CONSOLEAPPLICATION1\X64\DEBUG\STDAFX.OBJ
C:\PROGRAM FILES (X86)\WINDOWS KITS\10\LIB\10.0.17134.0\UM\X64\KERNEL32.LIB
C:\PROGRAM FILES (X86)\WINDOWS KITS\10\LIB\10.0.17134.0\UM\X64\USER32.LIB
C:\PROGRAM FILES (X86)\WINDOWS KITS\10\LIB\10.0.17134.0\UM\X64\GDI32.LIB
C:\PROGRAM FILES (X86)\WINDOWS KITS\10\LIB\10.0.17134.0\UM\X64\WINSPOOL.LIB
C:\PROGRAM FILES (X86)\WINDOWS KITS\10\LIB\10.0.17134.0\UM\X64\COMDLG32.LIB
C:\PROGRAM FILES (X86)\WINDOWS KITS\10\LIB\10.0.17134.0\UM\X64\ADVAPI32.LIB
C:\PROGRAM FILES (X86)\WINDOWS KITS\10\LIB\10.0.17134.0\UM\X64\SHELL32.LIB
C:\PROGRAM FILES (X86)\WINDOWS KITS\10\LIB\10.0.17134.0\UM\X64\OLE32.LIB
C:\PROGRAM FILES (X86)\WINDOWS KITS\10\LIB\10.0.17134.0\UM\X64\OLEAUT32.LIB
C:\PROGRAM FILES (X86)\WINDOWS KITS\10\LIB\10.0.17134.0\UM\X64\UUID.LIB
C:\PROGRAM FILES (X86)\WINDOWS KITS\10\LIB\10.0.17134.0\UM\X64\ODBC32.LIB
C:\PROGRAM FILES (X86)\WINDOWS KITS\10\LIB\10.0.17134.0\UM\X64\ODBCCP32.LIB
C:\USERS\DEOME\DESKTOP\FOCP\CB53244B-GR03-REPO\PROJECT\CONSOLEAPPLICATION1\CONSOLEAPPLICATION1\X64\DEBUG\CONSOLEAPPLICATION1.OBJ
C:\USERS\DEOME\DESKTOP\FOCP\CB53244B-GR03-REPO\PROJECT\CONSOLEAPPLICATION1\CONSOLEAPPLICATION1\X64\DEBUG\DELETIONFUNCTIONS.OBJ
C:\USERS\DEOME\DESKTOP\FOCP\CB53244B-GR03-REPO\PROJECT\CONSOLEAPPLICATION1\CONSOLEAPPLICATION1\X64\DEBUG\FUNCTIONS.OBJ
C:\USERS\DEOME\DESKTOP\FOCP\CB53244B-GR03-REPO\PROJECT\CONSOLEAPPLICATION1\CONSOLEAPPLICATION1\X64\DEBUG\STDAFX.OBJ
C:\WINDOWS\SYSTEM32\TZRES.DLL
C:\WINDOWS\GLOBALIZATION\SORTING\SORTDEFAULT.NLS
C:\PROGRAM FILES (X86)\VISUAL LEAK DETECTOR\LIB\WIN64\VLD.LIB
C:\PROGRAM FILES (X86)\MICROSOFT VISUAL STUDIO\2017\COMMUNITY\VC\TOOLS\MSVC\14.14.26428\LIB\X64\MSVCPRTD.LIB
C:\PROGRAM FILES (X86)\MICROSOFT VISUAL STUDIO\2017\COMMUNITY\VC\TOOLS\MSVC\14.14.26428\LIB\X64\MSVCRTD.LIB
C:\PROGRAM FILES (X86)\MICROSOFT VISUAL STUDIO\2017\COMMUNITY\VC\TOOLS\MSVC\14.14.26428\LIB\X64\OLDNAMES.LIB
C:\PROGRAM FILES (X86)\MICROSOFT VISUAL STUDIO\2017\COMMUNITY\VC\TOOLS\MSVC\14.14.26428\LIB\X64\VCRUNTIMED.LIB
C:\PROGRAM FILES (X86)\WINDOWS KITS\10\LIB\10.0.17134.0\UCRT\X64\UCRTD.LIB
C:\PROGRAM FILES (X86)\MICROSOFT VISUAL STUDIO\2017\COMMUNITY\VC\TOOLS\MSVC\14.14.26428\BIN\HOSTX86\X64\VCTIP.EXE
