^C:\USERS\DEOME\DESKTOP\FOCP\CB53244B-GR03-REPO\PROJECT\CONSOLEAPPLICATION1\CONSOLEAPPLICATION1\X64\DEBUG\CONSOLEAPPLICATION1.OBJ|C:\USERS\DEOME\DESKTOP\FOCP\CB53244B-GR03-REPO\PROJECT\CONSOLEAPPLICATION1\CONSOLEAPPLICATION1\X64\DEBUG\DELETIONFUNCTIONS.OBJ|C:\USERS\DEOME\DESKTOP\FOCP\CB53244B-GR03-REPO\PROJECT\CONSOLEAPPLICATION1\CONSOLEAPPLICATION1\X64\DEBUG\FUNCTIONS.OBJ|C:\USERS\DEOME\DESKTOP\FOCP\CB53244B-GR03-REPO\PROJECT\CONSOLEAPPLICATION1\CONSOLEAPPLICATION1\X64\DEBUG\STDAFX.OBJ
C:\USERS\DEOME\DESKTOP\FOCP\CB53244B-GR03-REPO\PROJECT\CONSOLEAPPLICATION1\X64\DEBUG\CONSOLEAPPLICATION1.EXE
C:\USERS\DEOME\DESKTOP\FOCP\CB53244B-GR03-REPO\PROJECT\CONSOLEAPPLICATION1\X64\DEBUG\CONSOLEAPPLICATION1.ILK
C:\USERS\DEOME\DESKTOP\FOCP\CB53244B-GR03-REPO\PROJECT\CONSOLEAPPLICATION1\X64\DEBUG\CONSOLEAPPLICATION1.PDB
