^C:\USERS\DEOME\DESKTOP\FOCP\LEC09+10\MEMORILO.CPP
/c /I"C:\PROGRAM FILES (X86)\VISUAL LEAK DETECTOR\INCLUDE" /ZI /nologo /W3 /WX- /diagnostics:classic /sdl /Od /Oy- /D WIN32 /D _DEBUG /D _CONSOLE /D _UNICODE /D UNICODE /Gm- /EHsc /RTC1 /MDd /GS /fp:precise /permissive- /Zc:wchar_t /Zc:forScope /Zc:inline /Fo"DEBUG\\" /Fd"DEBUG\VC141.PDB" /Gd /TP /analyze- /FC C:\USERS\DEOME\DESKTOP\FOCP\LEC09+10\MEMORILO.CPP
^C:\USERS\DEOME\DESKTOP\FOCP\CB53244B-GR03-REPO\PROJECT\CONSOLEAPPLICATION1\CONSOLEAPPLICATION1\STDAFX.CPP
/c /I"C:\PROGRAM FILES (X86)\VISUAL LEAK DETECTOR\INCLUDE" /I"(ADDITIONALINCLUDEDIRECTORIES)" /ZI /nologo /W3 /WX- /diagnostics:classic /sdl /Od /Oy- /D WIN32 /D _DEBUG /D _CONSOLE /D _UNICODE /D UNICODE /Gm- /EHsc /RTC1 /MDd /GS /fp:precise /permissive- /Zc:wchar_t /Zc:forScope /Zc:inline /Yc"stdafx.h" /Fp"DEBUG\CONSOLEAPPLICATION1.PCH" /Fo"DEBUG\\" /Fd"DEBUG\VC141.PDB" /Gd /TP /analyze- /FC C:\USERS\DEOME\DESKTOP\FOCP\CB53244B-GR03-REPO\PROJECT\CONSOLEAPPLICATION1\CONSOLEAPPLICATION1\STDAFX.CPP
^C:\USERS\DEOME\DESKTOP\FOCP\CB53244B-GR03-REPO\PROJECT\CONSOLEAPPLICATION1\CONSOLEAPPLICATION1\CONSOLEAPPLICATION1.CPP
/c /I"C:\PROGRAM FILES (X86)\VISUAL LEAK DETECTOR\INCLUDE" /I"(ADDITIONALINCLUDEDIRECTORIES)" /ZI /nologo /W3 /WX- /diagnostics:classic /sdl /Od /Oy- /D WIN32 /D _DEBUG /D _CONSOLE /D _UNICODE /D UNICODE /Gm- /EHsc /RTC1 /MDd /GS /fp:precise /permissive- /Zc:wchar_t /Zc:forScope /Zc:inline /Fo"DEBUG\\" /Fd"DEBUG\VC141.PDB" /Gd /TP /analyze- /FC C:\USERS\DEOME\DESKTOP\FOCP\CB53244B-GR03-REPO\PROJECT\CONSOLEAPPLICATION1\CONSOLEAPPLICATION1\CONSOLEAPPLICATION1.CPP
^C:\USERS\DEOME\DESKTOP\FOCP\CB53244B-GR03-REPO\PROJECT\CONSOLEAPPLICATION1\CONSOLEAPPLICATION1\DELETIONFUNCTIONS.CPP
/c /I"C:\PROGRAM FILES (X86)\VISUAL LEAK DETECTOR\INCLUDE" /I"(ADDITIONALINCLUDEDIRECTORIES)" /ZI /nologo /W3 /WX- /diagnostics:classic /sdl /Od /Oy- /D WIN32 /D _DEBUG /D _CONSOLE /D _UNICODE /D UNICODE /Gm- /EHsc /RTC1 /MDd /GS /fp:precise /permissive- /Zc:wchar_t /Zc:forScope /Zc:inline /Fo"DEBUG\\" /Fd"DEBUG\VC141.PDB" /Gd /TP /analyze- /FC C:\USERS\DEOME\DESKTOP\FOCP\CB53244B-GR03-REPO\PROJECT\CONSOLEAPPLICATION1\CONSOLEAPPLICATION1\DELETIONFUNCTIONS.CPP
^C:\USERS\DEOME\DESKTOP\FOCP\CB53244B-GR03-REPO\PROJECT\CONSOLEAPPLICATION1\CONSOLEAPPLICATION1\FUNCTIONS.CPP
/c /I"C:\PROGRAM FILES (X86)\VISUAL LEAK DETECTOR\INCLUDE" /I"(ADDITIONALINCLUDEDIRECTORIES)" /ZI /nologo /W3 /WX- /diagnostics:classic /sdl /Od /Oy- /D WIN32 /D _DEBUG /D _CONSOLE /D _UNICODE /D UNICODE /Gm- /EHsc /RTC1 /MDd /GS /fp:precise /permissive- /Zc:wchar_t /Zc:forScope /Zc:inline /Fo"DEBUG\\" /Fd"DEBUG\VC141.PDB" /Gd /TP /analyze- /FC C:\USERS\DEOME\DESKTOP\FOCP\CB53244B-GR03-REPO\PROJECT\CONSOLEAPPLICATION1\CONSOLEAPPLICATION1\FUNCTIONS.CPP
^C:\USERS\DEOME\DESKTOP\POLIBUDA\FOCP - ALL PROJECTS AND NOTES\CB53244B-GR03-REPO\PROJECT\CONSOLEAPPLICATION1\CONSOLEAPPLICATION1\STDAFX.CPP
/c /I"C:\PROGRAM FILES (X86)\VISUAL LEAK DETECTOR\INCLUDE" /I"(ADDITIONALINCLUDEDIRECTORIES)" /ZI /JMC /nologo /W3 /WX- /diagnostics:classic /sdl /Od /Oy- /D WIN32 /D _DEBUG /D _CONSOLE /D _UNICODE /D UNICODE /Gm- /EHsc /RTC1 /MDd /GS /fp:precise /permissive- /Zc:wchar_t /Zc:forScope /Zc:inline /Yc"stdafx.h" /Fp"DEBUG\CONSOLEAPPLICATION1.PCH" /Fo"DEBUG\\" /Fd"DEBUG\VC141.PDB" /Gd /TP /analyze- /FC C:\USERS\DEOME\DESKTOP\POLIBUDA\FOCP - ALL PROJECTS AND NOTES\CB53244B-GR03-REPO\PROJECT\CONSOLEAPPLICATION1\CONSOLEAPPLICATION1\STDAFX.CPP
^C:\USERS\DEOME\DESKTOP\POLIBUDA\FOCP - ALL PROJECTS AND NOTES\CB53244B-GR03-REPO\PROJECT\CONSOLEAPPLICATION1\CONSOLEAPPLICATION1\CONSOLEAPPLICATION1.CPP
/c /I"C:\PROGRAM FILES (X86)\VISUAL LEAK DETECTOR\INCLUDE" /I"(ADDITIONALINCLUDEDIRECTORIES)" /ZI /JMC /nologo /W3 /WX- /diagnostics:classic /sdl /Od /Oy- /D WIN32 /D _DEBUG /D _CONSOLE /D _UNICODE /D UNICODE /Gm- /EHsc /RTC1 /MDd /GS /fp:precise /permissive- /Zc:wchar_t /Zc:forScope /Zc:inline /Fo"DEBUG\\" /Fd"DEBUG\VC141.PDB" /Gd /TP /analyze- /FC C:\USERS\DEOME\DESKTOP\POLIBUDA\FOCP - ALL PROJECTS AND NOTES\CB53244B-GR03-REPO\PROJECT\CONSOLEAPPLICATION1\CONSOLEAPPLICATION1\CONSOLEAPPLICATION1.CPP
^C:\USERS\DEOME\DESKTOP\POLIBUDA\FOCP - ALL PROJECTS AND NOTES\CB53244B-GR03-REPO\PROJECT\CONSOLEAPPLICATION1\CONSOLEAPPLICATION1\DELETIONFUNCTIONS.CPP
/c /I"C:\PROGRAM FILES (X86)\VISUAL LEAK DETECTOR\INCLUDE" /I"(ADDITIONALINCLUDEDIRECTORIES)" /ZI /JMC /nologo /W3 /WX- /diagnostics:classic /sdl /Od /Oy- /D WIN32 /D _DEBUG /D _CONSOLE /D _UNICODE /D UNICODE /Gm- /EHsc /RTC1 /MDd /GS /fp:precise /permissive- /Zc:wchar_t /Zc:forScope /Zc:inline /Fo"DEBUG\\" /Fd"DEBUG\VC141.PDB" /Gd /TP /analyze- /FC C:\USERS\DEOME\DESKTOP\POLIBUDA\FOCP - ALL PROJECTS AND NOTES\CB53244B-GR03-REPO\PROJECT\CONSOLEAPPLICATION1\CONSOLEAPPLICATION1\DELETIONFUNCTIONS.CPP
^C:\USERS\DEOME\DESKTOP\POLIBUDA\FOCP - ALL PROJECTS AND NOTES\CB53244B-GR03-REPO\PROJECT\CONSOLEAPPLICATION1\CONSOLEAPPLICATION1\FUNCTIONS.CPP
/c /I"C:\PROGRAM FILES (X86)\VISUAL LEAK DETECTOR\INCLUDE" /I"(ADDITIONALINCLUDEDIRECTORIES)" /ZI /JMC /nologo /W3 /WX- /diagnostics:classic /sdl /Od /Oy- /D WIN32 /D _DEBUG /D _CONSOLE /D _UNICODE /D UNICODE /Gm- /EHsc /RTC1 /MDd /GS /fp:precise /permissive- /Zc:wchar_t /Zc:forScope /Zc:inline /Fo"DEBUG\\" /Fd"DEBUG\VC141.PDB" /Gd /TP /analyze- /FC C:\USERS\DEOME\DESKTOP\POLIBUDA\FOCP - ALL PROJECTS AND NOTES\CB53244B-GR03-REPO\PROJECT\CONSOLEAPPLICATION1\CONSOLEAPPLICATION1\FUNCTIONS.CPP
