^C:\USERS\DEOME\DESKTOP\FOCP\CB53244B-GR03-REPO\PROJECT\CONSOLEAPPLICATION1\CONSOLEAPPLICATION1\CONSOLEAPPLICATION1.CPP|C:\USERS\DEOME\DESKTOP\FOCP\LEC09+10\MEMORILO.CPP
C:\USERS\DEOME\DESKTOP\FOCP\CB53244B-GR03-REPO\PROJECT\CONSOLEAPPLICATION1\CONSOLEAPPLICATION1\DEBUG\VC141.PDB
C:\USERS\DEOME\DESKTOP\FOCP\CB53244B-GR03-REPO\PROJECT\CONSOLEAPPLICATION1\CONSOLEAPPLICATION1\DEBUG\VC141.IDB
C:\USERS\DEOME\DESKTOP\FOCP\CB53244B-GR03-REPO\PROJECT\CONSOLEAPPLICATION1\CONSOLEAPPLICATION1\DEBUG\CONSOLEAPPLICATION1.OBJ
C:\USERS\DEOME\DESKTOP\FOCP\CB53244B-GR03-REPO\PROJECT\CONSOLEAPPLICATION1\CONSOLEAPPLICATION1\DEBUG\MEMORILO.OBJ
^C:\USERS\DEOME\DESKTOP\FOCP\CB53244B-GR03-REPO\PROJECT\CONSOLEAPPLICATION1\CONSOLEAPPLICATION1\CONSOLEAPPLICATION1.CPP|C:\USERS\DEOME\DESKTOP\FOCP\CB53244B-GR03-REPO\PROJECT\CONSOLEAPPLICATION1\CONSOLEAPPLICATION1\DELETIONFUNCTIONS.CPP
C:\USERS\DEOME\DESKTOP\FOCP\CB53244B-GR03-REPO\PROJECT\CONSOLEAPPLICATION1\CONSOLEAPPLICATION1\DEBUG\VC141.PDB
C:\USERS\DEOME\DESKTOP\FOCP\CB53244B-GR03-REPO\PROJECT\CONSOLEAPPLICATION1\CONSOLEAPPLICATION1\DEBUG\VC141.IDB
C:\USERS\DEOME\DESKTOP\FOCP\CB53244B-GR03-REPO\PROJECT\CONSOLEAPPLICATION1\CONSOLEAPPLICATION1\DEBUG\DELETIONFUNCTIONS.OBJ
C:\USERS\DEOME\DESKTOP\FOCP\CB53244B-GR03-REPO\PROJECT\CONSOLEAPPLICATION1\CONSOLEAPPLICATION1\DEBUG\CONSOLEAPPLICATION1.OBJ
^C:\USERS\DEOME\DESKTOP\FOCP\CB53244B-GR03-REPO\PROJECT\CONSOLEAPPLICATION1\CONSOLEAPPLICATION1\CONSOLEAPPLICATION1.CPP|C:\USERS\DEOME\DESKTOP\FOCP\CB53244B-GR03-REPO\PROJECT\CONSOLEAPPLICATION1\CONSOLEAPPLICATION1\DELETIONFUNCTIONS.CPP|C:\USERS\DEOME\DESKTOP\FOCP\CB53244B-GR03-REPO\PROJECT\CONSOLEAPPLICATION1\CONSOLEAPPLICATION1\FUNCTIONS.CPP|C:\USERS\DEOME\DESKTOP\FOCP\LEC09+10\MEMORILO.CPP
C:\USERS\DEOME\DESKTOP\FOCP\CB53244B-GR03-REPO\PROJECT\CONSOLEAPPLICATION1\CONSOLEAPPLICATION1\DEBUG\VC141.PDB
C:\USERS\DEOME\DESKTOP\FOCP\CB53244B-GR03-REPO\PROJECT\CONSOLEAPPLICATION1\CONSOLEAPPLICATION1\DEBUG\VC141.IDB
C:\USERS\DEOME\DESKTOP\FOCP\CB53244B-GR03-REPO\PROJECT\CONSOLEAPPLICATION1\CONSOLEAPPLICATION1\DEBUG\FUNCTIONS.OBJ
C:\USERS\DEOME\DESKTOP\FOCP\CB53244B-GR03-REPO\PROJECT\CONSOLEAPPLICATION1\CONSOLEAPPLICATION1\DEBUG\DELETIONFUNCTIONS.OBJ
C:\USERS\DEOME\DESKTOP\FOCP\CB53244B-GR03-REPO\PROJECT\CONSOLEAPPLICATION1\CONSOLEAPPLICATION1\DEBUG\CONSOLEAPPLICATION1.OBJ
^C:\USERS\DEOME\DESKTOP\FOCP\LEC09+10\MEMORILO.CPP
C:\USERS\DEOME\DESKTOP\FOCP\CB53244B-GR03-REPO\PROJECT\CONSOLEAPPLICATION1\CONSOLEAPPLICATION1\DEBUG\VC141.PDB
C:\USERS\DEOME\DESKTOP\FOCP\CB53244B-GR03-REPO\PROJECT\CONSOLEAPPLICATION1\CONSOLEAPPLICATION1\DEBUG\VC141.IDB
C:\USERS\DEOME\DESKTOP\FOCP\CB53244B-GR03-REPO\PROJECT\CONSOLEAPPLICATION1\CONSOLEAPPLICATION1\DEBUG\MEMORILO.OBJ
^C:\USERS\DEOME\DESKTOP\FOCP\CB53244B-GR03-REPO\PROJECT\CONSOLEAPPLICATION1\CONSOLEAPPLICATION1\STDAFX.CPP
C:\USERS\DEOME\DESKTOP\FOCP\CB53244B-GR03-REPO\PROJECT\CONSOLEAPPLICATION1\CONSOLEAPPLICATION1\DEBUG\CONSOLEAPPLICATION1.PCH
C:\USERS\DEOME\DESKTOP\FOCP\CB53244B-GR03-REPO\PROJECT\CONSOLEAPPLICATION1\CONSOLEAPPLICATION1\DEBUG\VC141.PDB
C:\USERS\DEOME\DESKTOP\FOCP\CB53244B-GR03-REPO\PROJECT\CONSOLEAPPLICATION1\CONSOLEAPPLICATION1\DEBUG\VC141.IDB
C:\USERS\DEOME\DESKTOP\FOCP\CB53244B-GR03-REPO\PROJECT\CONSOLEAPPLICATION1\CONSOLEAPPLICATION1\DEBUG\STDAFX.OBJ
^C:\USERS\DEOME\DESKTOP\FOCP\CB53244B-GR03-REPO\PROJECT\CONSOLEAPPLICATION1\CONSOLEAPPLICATION1\DELETIONFUNCTIONS.CPP|C:\USERS\DEOME\DESKTOP\FOCP\CB53244B-GR03-REPO\PROJECT\CONSOLEAPPLICATION1\CONSOLEAPPLICATION1\FUNCTIONS.CPP
C:\USERS\DEOME\DESKTOP\FOCP\CB53244B-GR03-REPO\PROJECT\CONSOLEAPPLICATION1\CONSOLEAPPLICATION1\DEBUG\VC141.PDB
C:\USERS\DEOME\DESKTOP\FOCP\CB53244B-GR03-REPO\PROJECT\CONSOLEAPPLICATION1\CONSOLEAPPLICATION1\DEBUG\VC141.IDB
C:\USERS\DEOME\DESKTOP\FOCP\CB53244B-GR03-REPO\PROJECT\CONSOLEAPPLICATION1\CONSOLEAPPLICATION1\DEBUG\FUNCTIONS.OBJ
C:\USERS\DEOME\DESKTOP\FOCP\CB53244B-GR03-REPO\PROJECT\CONSOLEAPPLICATION1\CONSOLEAPPLICATION1\DEBUG\DELETIONFUNCTIONS.OBJ
^C:\USERS\DEOME\DESKTOP\FOCP\CB53244B-GR03-REPO\PROJECT\CONSOLEAPPLICATION1\CONSOLEAPPLICATION1\CONSOLEAPPLICATION1.CPP|C:\USERS\DEOME\DESKTOP\FOCP\CB53244B-GR03-REPO\PROJECT\CONSOLEAPPLICATION1\CONSOLEAPPLICATION1\FUNCTIONS.CPP
C:\USERS\DEOME\DESKTOP\FOCP\CB53244B-GR03-REPO\PROJECT\CONSOLEAPPLICATION1\CONSOLEAPPLICATION1\DEBUG\VC141.PDB
C:\USERS\DEOME\DESKTOP\FOCP\CB53244B-GR03-REPO\PROJECT\CONSOLEAPPLICATION1\CONSOLEAPPLICATION1\DEBUG\VC141.IDB
C:\USERS\DEOME\DESKTOP\FOCP\CB53244B-GR03-REPO\PROJECT\CONSOLEAPPLICATION1\CONSOLEAPPLICATION1\DEBUG\FUNCTIONS.OBJ
C:\USERS\DEOME\DESKTOP\FOCP\CB53244B-GR03-REPO\PROJECT\CONSOLEAPPLICATION1\CONSOLEAPPLICATION1\DEBUG\CONSOLEAPPLICATION1.OBJ
^C:\USERS\DEOME\DESKTOP\FOCP\CB53244B-GR03-REPO\PROJECT\CONSOLEAPPLICATION1\CONSOLEAPPLICATION1\CONSOLEAPPLICATION1.CPP|C:\USERS\DEOME\DESKTOP\FOCP\CB53244B-GR03-REPO\PROJECT\CONSOLEAPPLICATION1\CONSOLEAPPLICATION1\DELETIONFUNCTIONS.CPP|C:\USERS\DEOME\DESKTOP\FOCP\CB53244B-GR03-REPO\PROJECT\CONSOLEAPPLICATION1\CONSOLEAPPLICATION1\FUNCTIONS.CPP
C:\USERS\DEOME\DESKTOP\FOCP\CB53244B-GR03-REPO\PROJECT\CONSOLEAPPLICATION1\CONSOLEAPPLICATION1\DEBUG\VC141.PDB
C:\USERS\DEOME\DESKTOP\FOCP\CB53244B-GR03-REPO\PROJECT\CONSOLEAPPLICATION1\CONSOLEAPPLICATION1\DEBUG\VC141.IDB
C:\USERS\DEOME\DESKTOP\FOCP\CB53244B-GR03-REPO\PROJECT\CONSOLEAPPLICATION1\CONSOLEAPPLICATION1\DEBUG\FUNCTIONS.OBJ
C:\USERS\DEOME\DESKTOP\FOCP\CB53244B-GR03-REPO\PROJECT\CONSOLEAPPLICATION1\CONSOLEAPPLICATION1\DEBUG\DELETIONFUNCTIONS.OBJ
C:\USERS\DEOME\DESKTOP\FOCP\CB53244B-GR03-REPO\PROJECT\CONSOLEAPPLICATION1\CONSOLEAPPLICATION1\DEBUG\CONSOLEAPPLICATION1.OBJ
^C:\USERS\DEOME\DESKTOP\FOCP\CB53244B-GR03-REPO\PROJECT\CONSOLEAPPLICATION1\CONSOLEAPPLICATION1\CONSOLEAPPLICATION1.CPP
C:\USERS\DEOME\DESKTOP\FOCP\CB53244B-GR03-REPO\PROJECT\CONSOLEAPPLICATION1\CONSOLEAPPLICATION1\DEBUG\VC141.PDB
^C:\USERS\DEOME\DESKTOP\FOCP\CB53244B-GR03-REPO\PROJECT\CONSOLEAPPLICATION1\CONSOLEAPPLICATION1\DELETIONFUNCTIONS.CPP
C:\USERS\DEOME\DESKTOP\FOCP\CB53244B-GR03-REPO\PROJECT\CONSOLEAPPLICATION1\CONSOLEAPPLICATION1\DEBUG\VC141.PDB
^C:\USERS\DEOME\DESKTOP\FOCP\CB53244B-GR03-REPO\PROJECT\CONSOLEAPPLICATION1\CONSOLEAPPLICATION1\FUNCTIONS.CPP
C:\USERS\DEOME\DESKTOP\FOCP\CB53244B-GR03-REPO\PROJECT\CONSOLEAPPLICATION1\CONSOLEAPPLICATION1\DEBUG\VC141.PDB
^C:\USERS\DEOME\DESKTOP\POLIBUDA\FOCP - ALL PROJECTS AND NOTES\CB53244B-GR03-REPO\PROJECT\CONSOLEAPPLICATION1\CONSOLEAPPLICATION1\STDAFX.CPP
C:\USERS\DEOME\DESKTOP\POLIBUDA\FOCP - ALL PROJECTS AND NOTES\CB53244B-GR03-REPO\PROJECT\CONSOLEAPPLICATION1\CONSOLEAPPLICATION1\DEBUG\CONSOLEAPPLICATION1.PCH
C:\USERS\DEOME\DESKTOP\POLIBUDA\FOCP - ALL PROJECTS AND NOTES\CB53244B-GR03-REPO\PROJECT\CONSOLEAPPLICATION1\CONSOLEAPPLICATION1\DEBUG\VC141.PDB
C:\USERS\DEOME\DESKTOP\POLIBUDA\FOCP - ALL PROJECTS AND NOTES\CB53244B-GR03-REPO\PROJECT\CONSOLEAPPLICATION1\CONSOLEAPPLICATION1\DEBUG\VC141.IDB
C:\USERS\DEOME\DESKTOP\POLIBUDA\FOCP - ALL PROJECTS AND NOTES\CB53244B-GR03-REPO\PROJECT\CONSOLEAPPLICATION1\CONSOLEAPPLICATION1\DEBUG\STDAFX.OBJ
^C:\USERS\DEOME\DESKTOP\POLIBUDA\FOCP - ALL PROJECTS AND NOTES\CB53244B-GR03-REPO\PROJECT\CONSOLEAPPLICATION1\CONSOLEAPPLICATION1\CONSOLEAPPLICATION1.CPP|C:\USERS\DEOME\DESKTOP\POLIBUDA\FOCP - ALL PROJECTS AND NOTES\CB53244B-GR03-REPO\PROJECT\CONSOLEAPPLICATION1\CONSOLEAPPLICATION1\DELETIONFUNCTIONS.CPP|C:\USERS\DEOME\DESKTOP\POLIBUDA\FOCP - ALL PROJECTS AND NOTES\CB53244B-GR03-REPO\PROJECT\CONSOLEAPPLICATION1\CONSOLEAPPLICATION1\FUNCTIONS.CPP
C:\USERS\DEOME\DESKTOP\POLIBUDA\FOCP - ALL PROJECTS AND NOTES\CB53244B-GR03-REPO\PROJECT\CONSOLEAPPLICATION1\CONSOLEAPPLICATION1\DEBUG\VC141.PDB
C:\USERS\DEOME\DESKTOP\POLIBUDA\FOCP - ALL PROJECTS AND NOTES\CB53244B-GR03-REPO\PROJECT\CONSOLEAPPLICATION1\CONSOLEAPPLICATION1\DEBUG\VC141.IDB
C:\USERS\DEOME\DESKTOP\POLIBUDA\FOCP - ALL PROJECTS AND NOTES\CB53244B-GR03-REPO\PROJECT\CONSOLEAPPLICATION1\CONSOLEAPPLICATION1\DEBUG\FUNCTIONS.OBJ
C:\USERS\DEOME\DESKTOP\POLIBUDA\FOCP - ALL PROJECTS AND NOTES\CB53244B-GR03-REPO\PROJECT\CONSOLEAPPLICATION1\CONSOLEAPPLICATION1\DEBUG\DELETIONFUNCTIONS.OBJ
C:\USERS\DEOME\DESKTOP\POLIBUDA\FOCP - ALL PROJECTS AND NOTES\CB53244B-GR03-REPO\PROJECT\CONSOLEAPPLICATION1\CONSOLEAPPLICATION1\DEBUG\CONSOLEAPPLICATION1.OBJ
^C:\USERS\DEOME\DESKTOP\POLIBUDA\FOCP - ALL PROJECTS AND NOTES\CB53244B-GR03-REPO\PROJECT\CONSOLEAPPLICATION1\CONSOLEAPPLICATION1\CONSOLEAPPLICATION1.CPP
C:\USERS\DEOME\DESKTOP\POLIBUDA\FOCP - ALL PROJECTS AND NOTES\CB53244B-GR03-REPO\PROJECT\CONSOLEAPPLICATION1\CONSOLEAPPLICATION1\DEBUG\VC141.PDB
^C:\USERS\DEOME\DESKTOP\POLIBUDA\FOCP - ALL PROJECTS AND NOTES\CB53244B-GR03-REPO\PROJECT\CONSOLEAPPLICATION1\CONSOLEAPPLICATION1\DELETIONFUNCTIONS.CPP
C:\USERS\DEOME\DESKTOP\POLIBUDA\FOCP - ALL PROJECTS AND NOTES\CB53244B-GR03-REPO\PROJECT\CONSOLEAPPLICATION1\CONSOLEAPPLICATION1\DEBUG\VC141.PDB
^C:\USERS\DEOME\DESKTOP\POLIBUDA\FOCP - ALL PROJECTS AND NOTES\CB53244B-GR03-REPO\PROJECT\CONSOLEAPPLICATION1\CONSOLEAPPLICATION1\FUNCTIONS.CPP
C:\USERS\DEOME\DESKTOP\POLIBUDA\FOCP - ALL PROJECTS AND NOTES\CB53244B-GR03-REPO\PROJECT\CONSOLEAPPLICATION1\CONSOLEAPPLICATION1\DEBUG\VC141.PDB
